module gitlab.com/tluke12345/traffic

go 1.21.8

require (
	github.com/fatih/color v1.17.0 // indirect
	github.com/mattn/go-colorable v0.1.13 // indirect
	github.com/mattn/go-isatty v0.0.20 // indirect
	golang.org/x/sys v0.18.0 // indirect
)
